M00-122 ( Morning ) 06:00-15:00 540 (break at 12:00--13:00) 0/1/1, 0/1/1, 1/1/0, 1/0/0, 0/1/0, 1/1/0, 0/1/0, [3/6/2]
M00-42 ( Morning ) 07:00-16:00 540 (break at 12:30--13:30) 5/2/3, 5/2/2, 5/2/3, 6/4/3, 6/5/1, 2/5/1, 1/4/4, [30/24/17]
A00-399 ( Afternoon ) 14:30-00:00* 570 (break at 17:30--18:30) 0/1/1, 0/1/2, 1/4/1, 2/2/1, 0/1/1, 1/1/1, 2/2/1, [6/12/8]
ASh00-627 ( Afternoon-Short ) 17:30-22:00 270 (break at 20:00--20:30) 0/1/1, 0/1/2, 1/2/1, 1/2/1, 0/1/1, 1/1/1, 1/2/1, [4/10/8]
A00-457 ( Afternoon ) 15:30-00:00* 510 (break at 20:00--21:00) 1/0/5, 3/2/4, 1/1/5, 0/1/5, 1/2/2, 0/2/2, 0/3/2, [6/11/25]
A00-488 ( Afternoon ) 14:30-23:00 510 (break at 17:30--18:30) 4/2/1, 4/2/0, 2/0/0, 4/4/4, 5/5/2, 5/5/1, 3/4/1, [27/22/9]
A00-380 ( Afternoon ) 13:30-23:00 570 (break at 17:30--18:30) 4/4/0, 3/5/4, 2/4/1, 2/5/1, 3/5/1, 5/2/3, 6/0/3, [25/25/13]
M00-41 ( Morning ) 06:00-15:30 570 (break at 12:00--13:00) 6/1/1, 6/0/2, 5/0/1, 0/0/1, 0/2/2, 2/2/2, 2/2/2, [21/7/11]
ASh00-681 ( Afternoon-Short ) 18:00-23:00 300 (break at 20:30--21:00) 0/1/1, 0/1/2, 1/2/1, 1/2/1, 0/1/1, 1/1/1, 1/2/1, [4/10/8]
MSh00-61 ( Morning-Short ) 06:00-10:00 240 (break at 08:00--08:30) 0/0/0, 0/0/1, 0/0/1, 0/1/1, 1/0/1, 0/0/1, 1/0/1, [2/1/6]
MSh00-606 ( Morning-Short ) 10:00-16:00 360 (break at 12:30--13:00) 0/0/0, 0/0/1, 0/0/1, 0/1/1, 1/0/1, 0/0/1, 1/0/1, [2/1/6]
ASh00-190 ( Afternoon-Short ) 13:00-17:00 240 (break at 14:30--15:00) 0/1/1, 0/1/1, 1/2/0, 1/1/0, 0/1/0, 1/1/0, 0/1/0, [3/8/2]
N00-209 ( Night ) 23:00-08:30* 570 (break at 01:30*) 0/0/1, 0/0/1, 0/0/1, 0/0/1, 0/0/1, 1/0/1, 0/0/0, [1/0/6]
N00-209 ( Night ) 23:00-08:00* 540 (break at 01:30*) 4/2/5, 5/2/3, 5/5/2, 5/1/2, 2/1/2, 1/1/5, 1/6/6, [23/18/25]
ASh00-185 ( Afternoon-Short ) 13:30-18:00 270 (break at 16:30--17:00) 0/1/1, 0/1/2, 1/2/1, 1/2/1, 0/1/1, 1/1/1, 1/2/1, [4/10/8]
A00-186 ( Afternoon ) 13:00-22:00 540 (break at 16:30--17:30) 4/1/0, 4/1/1, 3/0/0, 5/0/0, 5/1/0, 4/3/3, 0/4/3, [25/10/7]
M00-310 ( Morning ) 07:00-17:00 600 (break at 12:00--13:00) 0/0/0, 0/0/1, 0/0/1, 0/1/1, 0/0/1, 0/0/1, 1/1/1, [1/2/6]

Cost: 1500, Over Requirements: 360, Under Requirements: 120, Average Duties Per Person: 0, Shift Number: 1020, time: 1285.98, seed: 124573755
