N00-191 ( Night ) 22:30-06:30* 480 (break at 02:30*) 1/1/1, 5/1/1, 5/1/3, 1/1/5, 1/1/3, 5/2/3, 4/2/3, [22/9/19]
ASh00-325 ( Afternoon-Short ) 15:00-20:30 330 (break at 16:00--16:30) 0/1/0, 0/0/0, 0/0/0, 1/0/0, 0/1/0, 0/0/0, 0/0/1, [1/2/1]
ASh00-190 ( Afternoon-Short ) 13:00-17:30 270 (break at 15:00--15:30) 0/1/0, 0/0/0, 0/0/0, 1/0/0, 0/1/0, 0/0/0, 0/0/1, [1/2/1]
A00-552 ( Afternoon ) 15:30-00:30* 540 (break at 18:30--19:30) 1/2/5, 1/2/3, 2/5/3, 2/5/3, 5/5/4, 5/5/6, 5/5/3, [21/29/27]
ASh00-1 ( Afternoon-Short ) 12:30-16:30 240 (break at 14:00--14:30) 0/1/0, 0/0/0, 0/0/0, 1/0/0, 0/1/0, 0/0/0, 0/0/1, [1/2/1]
ASh00-329 ( Afternoon-Short ) 17:30-21:30 240 (break at 19:00--19:30) 0/1/0, 0/0/0, 0/0/0, 1/0/0, 0/1/0, 0/0/0, 0/0/1, [1/2/1]
ASh00-7 ( Afternoon-Short ) 13:00-17:30 270 (break at 14:00--14:30) 1/0/4, 4/1/4, 4/3/4, 3/6/4, 4/1/3, 4/2/3, 4/2/2, [24/15/24]
M00-198 ( Morning ) 07:00-16:00 540 (break at 10:00--11:00) 1/3/2, 1/6/5, 1/2/5, 1/1/5, 6/1/5, 3/1/3, 5/1/6, [18/15/31]
ASh00-433 ( Afternoon-Short ) 15:30-20:30 300 (break at 17:00--17:30) 3/3/6, 3/4/6, 3/4/6, 2/4/6, 5/3/6, 5/1/2, 5/1/4, [26/20/36]
A00-182 ( Afternoon ) 12:30-21:30 540 (break at 16:00--17:00) 1/4/1, 1/5/2, 6/5/2, 5/5/4, 6/4/4, 4/5/6, 4/6/5, [27/34/24]
A00-365 ( Afternoon ) 14:00-23:30 570 (break at 17:30--18:30) 2/2/6, 2/2/6, 2/2/5, 1/2/2, 1/2/6, 1/2/6, 1/2/1, [10/14/32]

Cost: 780, Over Requirements: 0, Under Requirements: 120, Average Duties Per Person: 0, Shift Number: 660, time: 1275.28, seed: 1098863740
