S00-13 ( Short ) 06:00-09:00 180 (no break) 1/1, 4/1, 4/2, 3/2, 5/3, 5/3, 4/3, [26/15]
S00-140 ( Short ) 11:30-16:30 300 (no break) 4/2, 4/3, 4/3, 4/3, 4/3, 4/1, 4/6, [28/21]
S00-372 ( Short ) 23:00-05:00* 360 (no break) 1/1, 0/0, 0/1, 2/1, 0/1, 0/1, 0/0, [3/5]
S00-89 ( Short ) 21:00-02:00* 300 (no break) 3/1, 5/5, 5/2, 1/1, 6/4, 6/3, 5/3, [31/19]
S00-98 ( Short ) 00:00-05:00 300 (no break) 1/1, 3/0, 4/2, 3/1, 3/2, 5/2, 4/2, [23/10]
L00-10 ( Long ) 00:00-09:30 570 (break at 05:00--06:00) 0/0, 0/1, 0/0, 1/0, 0/3, 0/2, 1/2, [2/8]
S00-326 ( Short ) 12:30-17:30 300 (no break) 0/4, 0/3, 0/0, 0/0, 0/0, 0/1, 1/3, [1/11]
S00-78 ( Short ) 18:15-22:15 240 (no break) 3/0, 3/0, 3/0, 0/5, 0/2, 2/0, 3/2, [14/9]
L00-649 ( Long ) 12:30-22:00 570 (break at 17:30--18:30) 3/1, 3/3, 3/6, 6/1, 6/1, 4/3, 3/1, [28/16]

Cost: 2010, Over Requirements: 1470, Under Requirements: 0, Average Duties Per Person: 0, Shift Number: 540, time: 1242.51, seed: 2065356043
