Granularity: 10
Days: 7
Skills: 2
DutiesPerWeek (per Skill): (5,6) (5,6)
AverageNumberOfHoursPerWeek (per Skill): 36.5 38.5
NumberOfShiftTemplates: 2

S Short 00:00 23:30 * 180 360 60 NoBreak *
L Long 00:00 23:30 * 420 540 60 Break 60 * * 180 60 *

Requirements: Compact
00:00 / 06:00 1/1 1/1 1/1 1/1 1/1 1/1 1/1 
06:00 / 06:10 1/1 2/2 1/1 1/1 1/1 2/2 1/1 
06:10 / 06:20 1/1 2/2 2/1 2/1 1/1 2/1 1/1 
06:20 / 06:30 2/2 2/2 3/2 2/1 2/1 2/1 2/2 
06:30 / 06:50 3/2 3/3 4/3 3/2 3/2 3/2 3/3 
06:50 / 07:00 4/3 4/2 3/2 4/3 4/2 4/3 4/2 
07:00 / 07:40 4/3 4/3 4/3 4/2 4/2 3/3 4/2 
07:40 / 08:00 4/3 4/3 4/3 4/3 4/2 3/2 4/3 
08:00 / 08:10 4/2 4/3 4/4 4/2 4/2 4/3 3/3 
08:10 / 09:00 4/3 3/2 4/3 3/3 3/3 3/2 3/2 
09:00 / 09:20 5/4 3/3 3/3 4/2 4/2 4/2 3/2 
09:20 / 09:30 4/3 4/2 3/2 4/2 4/2 3/2 4/3 
09:30 / 09:50 4/2 4/2 4/2 4/3 4/3 4/3 3/2 
09:50 / 10:00 3/2 4/2 4/3 4/2 4/2 3/2 3/2 
10:00 / 10:10 4/2 4/2 5/3 4/3 3/3 4/2 3/3 
10:10 / 10:20 3/3 3/2 5/2 3/2 4/3 4/3 3/2 
10:20 / 10:30 4/3 4/2 5/3 4/2 5/3 4/3 3/2 
10:30 / 10:50 5/2 3/2 4/3 4/3 4/3 3/2 4/2 
10:50 / 11:00 4/2 3/3 4/3 3/2 5/4 4/2 3/3 
11:00 / 11:10 4/2 4/3 4/4 3/2 4/4 4/3 4/2 
11:10 / 11:20 4/3 5/4 5/3 3/2 4/3 5/4 4/3 
11:20 / 11:30 4/4 5/4 4/3 4/2 6/2 5/4 5/4 
11:30 / 11:50 5/3 4/3 5/3 6/3 6/3 5/3 5/3 
11:50 / 12:10 5/4 5/4 5/2 5/3 5/3 6/3 5/2 
12:10 / 12:20 5/4 5/4 4/2 6/4 6/4 6/2 4/2 
12:20 / 12:30 5/3 6/3 4/3 5/5 5/4 4/3 4/3 
12:30 / 12:40 4/4 5/3 4/3 4/4 4/4 5/2 4/4 
12:40 / 12:50 6/5 4/4 5/4 6/3 6/3 6/3 5/3 
12:50 / 13:00 5/3 4/4 4/4 6/2 4/2 6/4 6/4 
13:00 / 13:10 5/4 4/3 4/3 6/2 6/2 4/3 5/4 
13:10 / 13:20 5/4 5/4 5/4 4/2 4/2 5/4 4/4 
13:20 / 13:30 4/3 4/3 4/3 5/2 5/2 4/4 5/4 
13:30 / 13:40 4/3 4/4 5/2 4/2 4/3 3/3 4/4 
13:40 / 13:50 4/4 4/4 3/2 4/2 4/2 3/3 4/3 
13:50 / 14:00 4/3 5/3 4/2 4/2 3/3 4/2 4/4 
14:00 / 14:10 3/3 5/3 4/2 4/2 3/3 4/2 4/4 
14:10 / 14:20 3/2 4/3 4/2 4/2 4/4 4/2 5/3 
14:20 / 14:30 4/3 5/3 3/2 3/2 4/3 4/2 4/4 
14:30 / 14:40 3/2 4/2 4/3 4/2 3/3 3/3 4/3 
14:40 / 14:50 4/3 4/2 3/3 4/2 4/2 3/2 3/3 
14:50 / 15:00 4/2 4/2 3/2 4/2 4/2 4/2 4/2 
15:00 / 15:10 4/3 4/3 4/3 4/2 4/3 3/3 5/3 
15:10 / 15:20 4/2 4/4 4/4 5/3 4/2 3/3 5/4 
15:20 / 15:40 6/3 4/3 4/4 5/2 5/3 4/2 5/5 
15:40 / 15:50 4/2 4/2 4/3 5/3 5/4 4/3 6/4 
15:50 / 16:00 4/2 4/3 5/3 4/4 4/3 4/3 5/4 
16:00 / 16:10 4/2 4/2 4/4 4/3 4/4 4/2 4/4 
16:10 / 16:30 4/2 4/2 4/4 4/4 4/4 4/2 4/3 
16:30 / 17:00 4/2 4/3 4/3 5/4 4/3 4/2 5/4 
17:00 / 17:10 4/3 4/3 4/4 5/3 5/2 3/2 4/3 
17:10 / 17:20 5/4 4/2 4/4 5/4 3/2 3/2 4/3 
17:20 / 17:30 5/4 4/2 5/4 4/3 4/2 4/2 5/4 
17:30 / 17:40 4/3 4/3 3/3 4/2 5/2 4/3 5/3 
17:40 / 18:00 4/3 4/3 4/3 4/2 4/3 4/2 4/4 
18:00 / 18:30 4/2 4/2 5/3 4/2 5/3 4/3 4/3 
18:30 / 18:50 4/3 4/3 4/2 3/3 4/2 3/2 5/3 
18:50 / 19:00 3/2 4/2 3/2 4/3 5/2 4/3 4/2 
19:00 / 19:20 3/3 4/3 4/3 4/2 4/2 3/2 4/3 
19:20 / 19:30 4/2 4/2 3/2 4/2 4/2 3/2 4/3 
19:30 / 19:50 4/2 3/3 3/3 3/3 4/2 4/2 3/2 
19:50 / 20:40 3/2 4/2 3/2 3/2 3/2 4/3 4/2 
20:40 / 21:00 3/3 3/3 4/2 3/2 4/2 4/2 4/3 
21:00 / 21:20 3/2 3/3 3/3 4/3 4/3 3/1 4/2 
21:20 / 21:30 3/2 3/2 4/2 3/3 4/2 2/2 4/3 
21:30 / 21:40 3/2 4/2 4/2 3/2 4/2 2/2 3/2 
21:40 / 21:50 3/2 4/3 4/2 4/2 4/3 2/1 3/2 
21:50 / 22:00 4/2 3/2 3/1 3/3 3/2 2/2 2/1 
22:00 / 22:10 3/1 2/2 2/1 2/2 3/2 1/1 2/1 
22:10 / 22:20 2/1 2/2 1/1 3/1 2/1 1/1 2/2 
22:20 / 22:30 2/1 2/1 1/1 2/1 1/1 1/1 2/1 
22:30 / 24:00 1/1 1/1 1/1 1/1 1/1 1/1 1/1 