Granularity: 15
Days: 7
Skills: 2
Duties Per Week (per Skill): (5,6) (5,6)
Average Number Of Hours Per Week (per Skill): 36 35
NumberOfShiftTemplates: 10

CO Continuing 06:00 19:00 22:00 180 510 15 NoBreak *
1H Broken-1 06:00 17:00 22:00 300 570 15 Break 60 11:30 * 120 120 *
1H15 Broken-1-15 06:00 16:00 22:00 315 570 15 Break 75 11:30 * 120 120 *
1H30 Broken-1-30 06:00 16:00 22:00 330 570 15 Break 90 11:30 * 120 120 *
1H45 Broken-1-45 06:00 16:00 22:00 345 570 15 Break 105 11:30 * 120 120 *
2H Broken-2 06:00 16:00 22:00 360 630 15 Break 120 11:30 16:00 120 120 *
2H15 Broken-2-15 06:00 15:00 22:00 375 630 15 Break 135 11:30 * 120 120 *
2H30 Broken-2-30 06:00 15:00 22:00 390 630 15 Break 150 11:30 * 120 120 *
2H45 Broken-2-45 06:00 15:00 22:00 405 630 15 Break 165 11:30 * 120 120 *
3H Broken-3 06:00 15:00 22:00 420 690 15 Break 180 11:30 * 120 120 *

Requirements: Compact
06:00 / 06:15 0/0 0/0 13/13 13/11 40/17 11/11 19/8 
06:15 / 06:30 0/0 0/0 13/11 11/9 40/20 13/11 16/10 
06:30 / 06:45 0/0 1/1 16/13 13/11 43/24 16/9 18/12 
06:45 / 07:00 0/0 2/2 19/11 14/13 36/25 14/11 18/11 
07:00 / 07:15 1/1 3/3 20/12 17/16 31/21 17/13 15/10 
07:15 / 07:30 2/2 4/4 24/14 20/19 31/18 20/16 18/10 
07:30 / 07:45 3/3 5/5 21/17 24/22 26/15 24/19 15/12 
07:45 / 08:00 4/4 6/6 25/20 28/26 31/18 28/22 16/10 
08:00 / 08:15 5/5 8/8 23/23 33/25 36/15 33/18 16/12 
08:15 / 08:30 6/6 10/10 27/19 39/29 36/18 34/17 16/10 
08:30 / 08:45 8/8 12/12 28/16 43/26 30/21 29/17 14/8 
08:45 / 09:00 10/10 14/14 33/19 50/26 32/25 34/20 14/10 
09:00 / 09:15 12/12 17/17 32/16 42/30 36/21 35/18 13/8 
09:15 / 09:30 14/14 20/20 28/19 36/25 36/21 37/18 14/7 
09:30 / 09:45 17/17 24/24 33/17 30/24 32/21 35/18 11/7 
09:45 / 10:00 20/20 28/23 34/20 35/20 34/17 37/21 12/7 
10:00 / 10:15 24/24 33/26 40/24 32/19 37/19 34/20 14/9 
10:15 / 10:30 28/27 39/27 40/28 37/22 32/19 40/20 13/10 
10:30 / 10:45 27/22 33/26 34/33 43/26 37/19 34/24 16/11 
10:45 / 11:00 27/18 39/27 40/33 36/31 32/22 40/27 14/11 
11:00 / 11:15 32/21 37/31 36/28 37/26 37/24 34/26 15/13 
11:15 / 11:30 27/21 43/26 37/24 42/24 41/20 33/31 18/11 
11:30 / 11:45 32/25 42/30 41/20 41/24 41/24 39/33 15/13 
11:45 / 12:00 28/22 35/25 35/17 35/23 40/28 45/28 18/11 
12:00 / 12:15 24/20 29/21 29/14 29/19 34/23 38/23 16/9 
12:15 / 12:30 20/17 24/17 24/15 24/16 28/19 32/19 15/8 
12:30 / 12:45 17/14 20/15 20/14 20/14 23/17 27/19 14/10 
12:45 / 13:00 20/11 17/12 20/11 17/11 21/14 22/16 16/8 
13:00 / 13:15 17/9 15/10 17/10 15/13 17/11 18/15 14/6 
13:15 / 13:30 14/7 14/12 14/9 12/11 20/13 17/14 14/6 
13:30 / 13:45 16/7 14/10 16/7 12/12 17/15 16/11 11/8 
13:45 / 14:00 14/9 17/12 13/9 12/12 16/12 19/11 13/10 
14:00 / 14:15 13/11 15/11 11/9 12/10 13/10 18/9 15/8 
14:15 / 14:30 13/9 15/9 13/11 14/10 12/10 15/9 13/10 
14:30 / 14:45 15/11 14/7 11/9 11/8 14/12 15/11 12/10 
14:45 / 15:00 16/9 13/8 13/11 13/10 16/10 15/13 13/8 
15:00 / 15:15 19/11 14/8 15/9 16/10 16/12 18/15 12/10 
15:15 / 15:30 16/9 13/8 14/8 14/11 16/12 21/14 14/10 
15:30 / 15:45 16/11 16/10 17/9 17/13 19/10 25/11 14/10 
15:45 / 16:00 19/9 13/11 15/11 14/11 21/9 23/11 14/12 
16:00 / 16:15 21/11 16/10 17/13 16/13 19/11 22/11 17/12 
16:15 / 16:30 19/9 19/8 15/15 19/15 17/10 26/11 14/10 
16:30 / 16:45 18/9 16/10 18/15 18/12 20/12 22/11 17/8 
16:45 / 17:00 16/9 14/12 21/12 19/12 22/14 26/13 14/7 
17:00 / 17:15 15/9 11/10 21/14 17/14 23/11 22/12 15/9 
17:15 / 17:30 15/11 11/11 23/12 19/11 22/13 24/12 12/7 
17:30 / 17:45 17/9 13/9 19/14 18/12 22/12 28/14 14/9 
17:45 / 18:00 20/9 11/7 22/17 15/10 22/12 24/17 13/7 
18:00 / 18:15 17/7 10/9 24/14 12/8 18/10 23/14 11/7 
18:15 / 18:30 14/7 11/8 20/17 14/10 15/8 19/13 10/7 
18:30 / 18:45 12/7 11/7 18/14 12/10 18/8 20/11 11/9 
18:45 / 19:00 14/7 13/9 21/16 12/10 17/7 17/13 13/7 
19:00 / 19:15 11/9 11/7 19/13 14/9 14/9 16/12 11/9 
19:15 / 19:30 10/7 11/6 22/16 17/11 15/9 18/12 11/9 
19:30 / 19:45 10/5 9/8 22/13 14/9 15/11 18/10 12/10 
19:45 / 20:00 9/6 9/6 19/12 16/9 12/11 17/12 14/8 
20:00 / 20:15 10/8 11/7 22/14 14/7 14/9 17/10 11/6 
20:15 / 20:30 12/10 13/9 24/11 14/9 11/10 15/12 9/5 
20:30 / 20:45 10/8 14/10 20/10 13/8 11/8 13/10 7/4 
20:45 / 21:00 10/6 11/8 24/12 11/10 13/8 16/8 5/3 
21:00 / 21:15 8/5 9/6 20/10 9/8 11/6 13/6 4/2 
21:15 / 21:30 6/4 7/5 17/8 7/6 9/5 11/5 3/1 
21:30 / 21:45 5/3 5/4 14/6 5/5 7/4 9/4 2/0 
21:45 / 22:00 4/2 4/3 11/5 4/4 5/3 7/3 1/0 
  