Granularity: 15
Days: 7
Skills: 3
Duties Per Week (per Skill): (5,6) (3,4) (2,3) 
Average Number Of Hours Per Week (per Skill): 38 25 20 
NumberOfShiftTemplates: 6

M Morning 06:00 08:00 * 480 600 30 Break 60 * *  120 120 *
A Afternoon 12:00 16:00 * 480 600 30 Break 60 * *  120 120 *
N Night 22:00 24:00 * 480 600 30 Break 60 * *  120 120 *
MSh Morning-Short 06:00 11:00 * 240 360 30 Break 30 * *  60 60 *
ASh Afternoon-Short 12:00 18:00 * 240 360 30 Break 30 * *  60 60 *
NSh Night-Short 21:00 24:00 * 240 360 30 Break 30 * *  60 60 *

Requirements: Compact
00:00 / 00:15 9/7/6 2/3/6 6/3/4 7/6/6 3/6/8 6/6/7 10/7/9 
00:15 / 00:30 9/7/6 2/3/6 6/3/4 7/6/6 3/6/8 6/6/7 10/7/9 
00:30 / 00:45 4/2/3 1/1/1 5/1/1 5/1/3 1/1/5 1/1/3 5/2/3 
00:45 / 01:00 4/2/3 1/1/1 5/1/1 5/1/3 1/1/5 1/1/3 5/2/3 
01:00 / 01:15 4/2/3 1/1/1 5/1/1 5/1/3 1/1/5 1/1/3 5/2/3 
01:15 / 01:30 4/2/3 1/1/1 5/1/1 5/1/3 1/1/5 1/1/3 5/2/3 
01:30 / 01:45 4/2/3 1/1/1 5/1/1 5/1/3 1/1/5 1/1/3 5/2/3 
01:45 / 02:00 4/2/3 1/1/1 5/1/1 5/1/3 1/1/5 1/1/3 5/2/3 
02:00 / 02:15 4/2/3 1/1/1 5/1/1 5/1/3 1/1/5 1/1/3 5/2/3 
02:15 / 02:30 4/2/3 1/1/1 5/1/1 5/1/3 1/1/5 1/1/3 5/2/3 
02:30 / 02:45 0/0/0 0/0/0 0/0/0 0/0/0 0/0/0 0/0/0 0/0/0 
02:45 / 03:00 0/0/0 0/0/0 0/0/0 0/0/0 0/0/0 0/0/0 0/0/0 
03:00 / 03:15 0/0/0 0/0/0 0/0/0 0/0/0 0/0/0 0/0/0 0/0/0 
03:15 / 03:30 0/0/0 0/0/0 0/0/0 0/0/0 0/0/0 0/0/0 0/0/0 
03:30 / 03:45 4/2/3 1/1/1 5/1/1 5/1/3 1/1/5 1/1/3 5/2/3 
03:45 / 04:00 4/2/3 1/1/1 5/1/1 5/1/3 1/1/5 1/1/3 5/2/3 
04:00 / 04:15 4/2/3 1/1/1 5/1/1 5/1/3 1/1/5 1/1/3 5/2/3 
04:15 / 04:30 4/2/3 1/1/1 5/1/1 5/1/3 1/1/5 1/1/3 5/2/3 
04:30 / 04:45 4/2/3 1/1/1 5/1/1 5/1/3 1/1/5 1/1/3 5/2/3 
04:45 / 05:00 4/2/3 1/1/1 5/1/1 5/1/3 1/1/5 1/1/3 5/2/3 
05:00 / 05:15 4/2/3 1/1/1 5/1/1 5/1/3 1/1/5 1/1/3 5/2/3 
05:15 / 05:30 4/2/3 1/1/1 5/1/1 5/1/3 1/1/5 1/1/3 5/2/3 
05:30 / 05:45 4/2/3 1/1/1 5/1/1 5/1/3 1/1/5 1/1/3 5/2/3 
05:45 / 06:00 4/2/3 1/1/1 5/1/1 5/1/3 1/1/5 1/1/3 5/2/3 
06:00 / 06:15 4/2/3 1/1/1 5/1/1 5/1/3 1/1/5 1/1/3 5/2/3 
06:15 / 06:30 4/2/3 1/1/1 5/1/1 5/1/3 1/1/5 1/1/3 5/2/3 
06:30 / 06:45 0/0/0 0/0/0 0/0/0 0/0/0 0/0/0 0/0/0 0/0/0 
06:45 / 07:00 0/0/0 0/0/0 0/0/0 0/0/0 0/0/0 0/0/0 0/0/0 
07:00 / 07:15 1/3/2 1/6/5 1/2/5 1/1/5 6/1/5 3/1/3 5/1/6 
07:15 / 07:30 1/3/2 1/6/5 1/2/5 1/1/5 6/1/5 3/1/3 5/1/6 
07:30 / 07:45 1/3/2 1/6/5 1/2/5 1/1/5 6/1/5 3/1/3 5/1/6 
07:45 / 08:00 1/3/2 1/6/5 1/2/5 1/1/5 6/1/5 3/1/3 5/1/6 
08:00 / 08:15 1/3/2 1/6/5 1/2/5 1/1/5 6/1/5 3/1/3 5/1/6 
08:15 / 08:30 1/3/2 1/6/5 1/2/5 1/1/5 6/1/5 3/1/3 5/1/6 
08:30 / 08:45 1/3/2 1/6/5 1/2/5 1/1/5 6/1/5 3/1/3 5/1/6 
08:45 / 09:00 1/3/2 1/6/5 1/2/5 1/1/5 6/1/5 3/1/3 5/1/6 
09:00 / 09:15 1/3/2 1/6/5 1/2/5 1/1/5 6/1/5 3/1/3 5/1/6 
09:15 / 09:30 1/3/2 1/6/5 1/2/5 1/1/5 6/1/5 3/1/3 5/1/6 
09:30 / 09:45 1/3/2 1/6/5 1/2/5 1/1/5 6/1/5 3/1/3 5/1/6 
09:45 / 10:00 1/3/2 1/6/5 1/2/5 1/1/5 6/1/5 3/1/3 5/1/6 
10:00 / 10:15 0/0/0 0/0/0 0/0/0 0/0/0 0/0/0 0/0/0 0/0/0 
10:15 / 10:30 0/0/0 0/0/0 0/0/0 0/0/0 0/0/0 0/0/0 0/0/0 
10:30 / 10:45 0/0/0 0/0/0 0/0/0 0/0/0 0/0/0 0/0/0 0/0/0 
10:45 / 11:00 0/0/0 0/0/0 0/0/0 0/0/0 0/0/0 0/0/0 0/0/0 
11:00 / 11:15 1/3/2 1/6/5 1/2/5 1/1/5 6/1/5 3/1/3 5/1/6 
11:15 / 11:30 1/3/2 1/6/5 1/2/5 1/1/5 6/1/5 3/1/3 5/1/6 
11:30 / 11:45 1/3/2 1/6/5 1/2/5 1/1/5 6/1/5 3/1/3 5/1/6 
11:45 / 12:00 1/3/2 1/6/5 1/2/5 1/1/5 6/1/5 3/1/3 5/1/6 
12:00 / 12:15 1/3/2 1/6/5 1/2/5 1/1/5 6/1/5 3/1/3 5/1/6 
12:15 / 12:30 1/3/2 1/6/5 1/2/5 1/1/5 6/1/5 3/1/3 5/1/6 
12:30 / 12:45 2/8/3 2/11/7 7/7/7 7/6/9 12/6/9 7/6/9 9/7/12 
12:45 / 13:00 2/8/3 2/11/7 7/7/7 7/6/9 12/6/9 7/6/9 9/7/12 
13:00 / 13:15 3/9/7 6/12/11 11/10/11 11/12/13 16/8/12 11/8/12 13/9/15 
13:15 / 13:30 3/9/7 6/12/11 11/10/11 11/12/13 16/8/12 11/8/12 13/9/15 
13:30 / 13:45 3/9/7 6/12/11 11/10/11 11/12/13 16/8/12 11/8/12 13/9/15 
13:45 / 14:00 3/9/7 6/12/11 11/10/11 11/12/13 16/8/12 11/8/12 13/9/15 
14:00 / 14:15 4/10/9 4/13/13 9/9/12 8/8/11 13/8/15 8/8/15 10/9/13 
14:15 / 14:30 4/10/9 4/13/13 9/9/12 8/8/11 13/8/15 8/8/15 10/9/13 
14:30 / 14:45 5/11/13 8/14/17 13/12/16 12/14/15 17/10/18 12/10/18 14/11/16 
14:45 / 15:00 5/11/13 8/14/17 13/12/16 12/14/15 17/10/18 12/10/18 14/11/16 
15:00 / 15:15 5/11/13 8/14/17 13/12/16 12/14/15 17/10/18 12/10/18 14/11/16 
15:15 / 15:30 5/11/13 8/14/17 13/12/16 12/14/15 17/10/18 12/10/18 14/11/16 
15:30 / 15:45 9/17/24 12/20/26 18/21/25 17/23/24 27/19/28 22/16/26 24/17/24 
15:45 / 16:00 9/17/24 12/20/26 18/21/25 17/23/24 27/19/28 22/16/26 24/17/24 
16:00 / 16:15 7/9/21 10/9/19 11/14/18 10/17/15 15/13/19 15/10/17 15/10/12 
16:15 / 16:30 7/9/21 10/9/19 11/14/18 10/17/15 15/13/19 15/10/17 15/10/12 
16:30 / 16:45 7/9/21 10/9/19 11/14/18 10/17/15 15/13/19 15/10/17 15/10/12 
16:45 / 17:00 7/9/21 10/9/19 11/14/18 10/17/15 15/13/19 15/10/17 15/10/12 
17:00 / 17:15 5/10/16 8/10/15 14/15/14 13/18/13 16/14/17 14/14/21 14/15/13 
17:15 / 17:30 5/10/16 8/10/15 14/15/14 13/18/13 16/14/17 14/14/21 14/15/13 
17:30 / 17:45 5/11/12 5/11/11 11/14/11 11/14/13 16/14/14 14/11/14 14/12/14 
17:45 / 18:00 5/11/12 5/11/11 11/14/11 11/14/13 16/14/14 14/11/14 14/12/14 
18:00 / 18:15 5/11/12 5/11/11 11/14/11 11/14/13 16/14/14 14/11/14 14/12/14 
18:15 / 18:30 5/11/12 5/11/11 11/14/11 11/14/13 16/14/14 14/11/14 14/12/14 
18:30 / 18:45 6/11/13 6/11/14 11/11/13 10/11/12 12/11/16 10/8/14 10/9/12 
18:45 / 19:00 6/11/13 6/11/14 11/11/13 10/11/12 12/11/16 10/8/14 10/9/12 
19:00 / 19:15 6/11/13 6/11/14 11/11/13 10/11/12 12/11/16 10/8/14 10/9/12 
19:15 / 19:30 6/11/13 6/11/14 11/11/13 10/11/12 12/11/16 10/8/14 10/9/12 
19:30 / 19:45 7/13/18 7/13/17 13/16/16 12/16/15 17/16/20 15/13/20 15/14/15 
19:45 / 20:00 7/13/18 7/13/17 13/16/16 12/16/15 17/16/20 15/13/20 15/14/15 
20:00 / 20:15 7/13/18 7/13/17 13/16/16 12/16/15 17/16/20 15/13/20 15/14/15 
20:15 / 20:30 7/13/18 7/13/17 13/16/16 12/16/15 17/16/20 15/13/20 15/14/15 
20:30 / 20:45 4/9/12 4/9/11 10/12/10 9/12/9 12/12/14 10/12/18 10/13/10 
20:45 / 21:00 4/9/12 4/9/11 10/12/10 9/12/9 12/12/14 10/12/18 10/13/10 
21:00 / 21:15 4/9/12 4/9/11 10/12/10 9/12/9 12/12/14 10/12/18 10/13/10 
21:15 / 21:30 4/9/12 4/9/11 10/12/10 9/12/9 12/12/14 10/12/18 10/13/10 
21:30 / 21:45 3/4/11 3/4/9 4/7/8 3/7/5 6/7/10 6/7/12 6/7/4 
21:45 / 22:00 3/4/11 3/4/9 4/7/8 3/7/5 6/7/10 6/7/12 6/7/4 
22:00 / 22:15 3/4/11 3/4/9 4/7/8 3/7/5 6/7/10 6/7/12 6/7/4 
22:15 / 22:30 3/4/11 3/4/9 4/7/8 3/7/5 6/7/10 6/7/12 6/7/4 
22:30 / 22:45 4/5/12 8/5/10 9/8/11 4/8/10 7/8/13 11/9/15 10/9/7 
22:45 / 23:00 4/5/12 8/5/10 9/8/11 4/8/10 7/8/13 11/9/15 10/9/7 
23:00 / 23:15 4/5/12 8/5/10 9/8/11 4/8/10 7/8/13 11/9/15 10/9/7 
23:15 / 23:30 4/5/12 8/5/10 9/8/11 4/8/10 7/8/13 11/9/15 10/9/7 
23:30 / 23:45 2/3/6 6/3/4 7/6/6 3/6/8 6/6/7 10/7/9 9/7/6 
23:45 / 24:00 2/3/6 6/3/4 7/6/6 3/6/8 6/6/7 10/7/9 9/7/6 
